﻿0:10:0:4:23-00
1:9:0:4:23-00
2:18:0:4:23-00
3:18:0:4:23-00
4:13:0:4:23-00
5:14:0:4:23-00
6:19:0:4:23-00
7:11:0:4:23-00
8:13:0:4:23-00
9:2:0:4:23-00
10:17:0:4:23-00
11:8:0:4:23-00
12:0:0:4:23-00
13:15:0:4:23-00
14:7:0:4:23-00
15:11:0:4:23-00
16:4:0:4:23-00
17:15:0:4:23-00
18:10:0:4:23-00
19:15:0:4:23-00
20:13:0:4:23-00
21:12:0:4:23-00
22:5:0:4:23-00
23:9:0:4:23-00
24:10:0:4:23-00
25:3:0:4:23-00
26:11:0:4:23-00
27:6:0:4:23-00
28:1:0:4:23-00
29:18:0:4:23-00
30:0:0:4:23-00
31:5:0:4:23-00
32:10:0:4:23-00
33:18:0:4:23-00
34:3:0:4:23-00
35:19:0:4:23-00
36:19:0:4:23-00
37:13:0:4:23-00
38:4:0:4:23-00
39:11:0:4:23-00
40:15:0:4:23-00
41:18:0:4:23-00
42:9:0:4:23-00
43:9:0:4:23-00
44:7:0:4:23-00
45:19:0:4:23-00
46:1:0:4:23-00
47:2:0:4:23-00
48:10:0:4:23-00
49:19:0:4:23-00
50:4:0:4:23-00
51:7:0:4:23-00
52:14:0:4:23-00
53:19:0:4:23-00
54:9:0:4:23-00
55:17:0:4:23-00
56:4:0:4:23-00
57:9:0:4:23-00
58:8:0:4:23-00
59:9:0:4:23-00
60:2:0:4:23-00
61:12:0:4:23-00
62:10:0:4:23-00
63:15:0:4:23-00
64:1:0:4:23-00
65:11:0:4:23-00
66:17:0:4:23-00
67:2:0:4:23-00
68:11:0:4:23-00
69:7:0:4:23-00
70:12:0:4:23-00
71:10:0:4:23-00
72:11:0:4:23-00
73:19:0:4:23-00
74:0:0:4:23-00
75:14:0:4:23-00
76:2:0:4:23-00
77:15:0:4:23-00
78:2:0:4:23-00
79:11:0:4:23-00
80:2:0:4:23-00
81:9:0:4:23-00
82:16:0:4:23-00
83:1:0:4:23-00
84:13:0:4:23-00
85:12:0:4:23-00
86:11:0:4:23-00
87:10:0:4:23-00
88:9:0:4:23-00
89:6:0:4:23-00
90:15:0:4:23-00
91:10:0:4:23-00
92:5:0:4:23-00
93:14:0:4:23-00
94:8:0:4:23-00
95:2:0:4:23-00
96:8:0:4:23-00
97:13:0:4:23-00
98:7:0:4:23-00
99:15:0:4:23-00
100:1:0:4:23-00
101:18:0:4:23-00
102:10:0:4:23-00
103:2:0:4:23-00
104:7:0:4:23-00
105:13:0:4:23-00
106:16:0:4:23-00
107:15:0:4:23-00
108:19:0:4:23-00
109:15:0:4:23-00
110:15:0:4:23-00
111:8:0:4:23-00
112:7:0:4:23-00
113:16:0:4:23-00
114:6:0:4:23-00
115:13:0:4:23-00
116:16:0:4:23-00
117:9:0:4:23-00
118:1:0:4:23-00
119:9:0:4:23-00
120:0:0:4:23-00
121:7:0:4:23-00
122:13:0:4:23-00
123:5:0:4:23-00
124:12:0:4:23-00
125:1:0:4:23-00
126:5:0:4:23-00
127:16:0:4:23-00
128:11:0:4:23-00
129:17:0:4:23-00
130:6:0:4:23-00
131:8:0:4:23-00
132:7:0:4:23-00
133:6:0:4:23-00
134:9:0:4:23-00
135:3:0:4:23-00
136:18:0:4:23-00
137:14:0:4:23-00
138:13:0:4:23-00
139:0:0:4:23-00
140:15:0:4:23-00
141:16:0:4:23-00
142:11:0:4:23-00
143:13:0:4:23-00
144:11:0:4:23-00
145:6:0:4:23-00
146:2:0:4:23-00
147:8:0:4:23-00
148:7:0:4:23-00
149:14:0:4:23-00
150:5:0:4:23-00
151:18:0:4:23-00
152:12:0:4:23-00
153:18:0:4:23-00
154:14:0:4:23-00
155:14:0:4:23-00
156:5:0:4:23-00
157:5:0:4:23-00
158:9:0:4:23-00
159:5:0:4:23-00
160:7:0:4:23-00
161:0:0:4:23-00
162:3:0:4:23-00
163:1:0:4:23-00
164:9:0:4:23-00
165:6:0:4:23-00
166:1:0:4:23-00
167:0:0:4:23-00
168:7:0:4:23-00
169:2:0:4:23-00
170:14:0:4:23-00
171:2:0:4:23-00
172:15:0:4:23-00
173:1:0:4:23-00
174:13:0:4:23-00
175:4:0:4:23-00
176:16:0:4:23-00
177:19:0:4:23-00
178:14:0:4:23-00
179:6:0:4:23-00
180:18:0:4:23-00
181:16:0:4:23-00
182:9:0:4:23-00
183:16:0:4:23-00
184:12:0:4:23-00
185:7:0:4:23-00
186:16:0:4:23-00
187:8:0:4:23-00
188:11:0:4:23-00
189:14:0:4:23-00
190:18:0:4:23-00
191:13:0:4:23-00
192:4:0:4:23-00
193:8:0:4:23-00
194:12:0:4:23-00
195:15:0:4:23-00
196:12:0:4:23-00
197:9:0:4:23-00
198:4:0:4:23-00
199:4:0:4:23-00
200:4:0:4:23-00
201:2:0:4:23-00
202:1:0:4:23-00
203:4:0:4:23-00
204:19:0:4:23-00
205:3:0:4:23-00
206:3:0:4:23-00
207:10:0:4:23-00
208:5:0:4:23-00
209:10:0:4:23-00
210:18:0:4:23-00
211:6:0:4:23-00
212:10:0:4:23-00
213:2:0:4:23-00
214:7:0:4:23-00
215:11:0:4:23-00
216:10:0:4:23-00
217:7:0:4:23-00
218:9:0:4:23-00
219:2:0:4:23-00
220:9:0:4:23-00
221:13:0:4:23-00
222:8:0:4:23-00
223:4:1:18:20-00
224:1:1:18:20-00
225:17:1:18:20-00
226:7:1:18:20-00
227:8:1:18:20-00
228:17:1:18:20-00
229:12:1:18:20-00
230:6:1:18:20-00
231:14:1:18:20-00
232:9:1:18:20-00
233:2:1:18:20-00
234:16:1:18:20-00
235:15:1:18:20-00
236:4:1:18:20-00
237:16:1:18:20-00
238:8:1:18:20-00
239:3:1:18:20-00
240:6:1:18:20-00
241:3:1:18:20-00
242:1:1:18:20-00
243:16:1:18:20-00
244:11:1:18:20-00
245:2:1:18:20-00
246:2:1:18:20-00
247:0:1:18:20-00
248:1:1:18:20-00
249:4:1:18:20-00
250:5:1:18:20-00
251:19:1:18:20-00
252:2:1:18:20-00
253:15:1:18:20-00
254:11:1:18:20-00
255:13:1:18:20-00
256:8:1:18:20-00
257:0:1:18:20-00
258:18:1:18:20-00
259:6:1:18:20-00
260:16:1:18:20-00
261:1:1:18:20-00
262:7:1:18:20-00
263:18:1:18:20-00
264:11:1:18:20-00
265:11:1:18:20-00
266:1:1:18:20-00
267:0:1:18:20-00
268:10:1:18:20-00
269:15:1:18:20-00
270:6:1:18:20-00
271:10:1:18:20-00
272:1:1:18:20-00
273:18:1:18:20-00
274:3:1:18:20-00
275:10:1:18:20-00
276:7:1:18:20-00
277:15:1:18:20-00
278:12:1:18:20-00
279:19:1:18:20-00
280:15:1:18:20-00
281:6:1:18:20-00
282:7:1:18:20-00
283:12:1:18:20-00
284:6:1:18:20-00
285:6:1:18:20-00
286:12:1:18:20-00
287:13:1:18:20-00
288:10:1:18:20-00
289:2:1:18:20-00
290:6:1:18:20-00
291:4:1:18:20-00
292:18:1:18:20-00
293:2:1:18:20-00
294:7:1:18:20-00
295:4:1:18:20-00
296:15:1:18:20-00
297:2:1:18:20-00
298:4:1:18:20-00
299:0:1:18:20-00
300:0:1:18:20-00
301:1:1:18:20-00
302:10:1:18:20-00
303:5:1:18:20-00
304:18:1:18:20-00
305:14:1:18:20-00
306:18:1:18:20-00
307:3:1:18:20-00
308:12:1:18:20-00
309:1:1:18:20-00
310:6:1:18:20-00
311:12:1:18:20-00
312:7:1:18:20-00
313:18:1:18:20-00
314:11:1:18:20-00
315:10:1:18:20-00
316:13:1:18:20-00
317:15:1:18:20-00
318:11:1:18:20-00
319:4:1:18:20-00
320:19:1:18:20-00
321:7:1:18:20-00
322:10:1:18:20-00
323:8:1:18:20-00
324:9:1:18:20-00
325:2:1:18:20-00
326:11:1:18:20-00
327:18:1:18:20-00
328:11:1:18:20-00
329:18:1:18:20-00
330:15:1:18:20-00
331:4:1:18:20-00
332:11:1:18:20-00
333:12:1:18:20-00
334:19:1:18:20-00
335:13:1:18:20-00
336:16:1:18:20-00
337:2:1:18:20-00
338:14:1:18:20-00
339:11:1:18:20-00
340:8:1:18:20-00
341:8:1:18:20-00
342:1:1:18:20-00
343:9:1:18:20-00
344:16:1:18:20-00
345:13:1:18:20-00
346:16:1:18:20-00
347:0:1:18:20-00
348:11:1:18:20-00
349:17:1:18:20-00
350:10:1:18:20-00
351:0:1:18:20-00
352:11:1:18:20-00
353:19:1:18:20-00
354:0:1:18:20-00
355:13:1:18:20-00
356:11:1:18:20-00
357:2:1:18:20-00
358:16:1:18:20-00
359:15:1:18:20-00
360:2:1:18:20-00
361:0:1:18:20-00
362:12:1:18:20-00
363:13:1:18:20-00
364:6:1:18:20-00
365:1:1:18:20-00
366:1:1:18:20-00
367:14:1:18:20-00
368:19:1:18:20-00
369:17:1:18:20-00
370:13:1:18:20-00
371:11:1:18:20-00
372:0:1:18:20-00
373:19:1:18:20-00
374:16:1:18:20-00
375:11:1:18:20-00
376:5:1:18:20-00
377:0:1:18:20-00
378:11:1:18:20-00
379:15:1:18:20-00
380:5:1:18:20-00
381:11:1:18:20-00
382:7:1:18:20-00
383:14:1:18:20-00
384:8:1:18:20-00
385:14:1:18:20-00
386:13:1:18:20-00
387:11:1:18:20-00
388:12:1:18:20-00
389:5:1:18:20-00
390:2:1:18:20-00
391:14:1:18:20-00
392:5:1:18:20-00
393:19:1:18:20-00
394:8:1:18:20-00
395:8:1:18:20-00
396:15:1:18:20-00
397:8:1:18:20-00
398:3:1:18:20-00
399:14:1:18:20-00
400:11:1:18:20-00
401:2:1:18:20-00
402:0:1:18:20-00
403:13:1:18:20-00
404:3:1:18:20-00
405:18:1:18:20-00
406:19:1:18:20-00
407:11:1:18:20-00
408:3:1:18:20-00
409:9:1:18:20-00
410:7:1:18:20-00
411:10:1:18:20-00
412:10:1:18:20-00
413:1:1:18:20-00
414:10:1:18:20-00
415:11:1:18:20-00
416:12:1:18:20-00
417:17:1:18:20-00
418:5:1:18:20-00
419:11:1:18:20-00
420:8:1:18:20-00
421:10:1:18:20-00
422:2:1:18:20-00
423:13:1:18:20-00
424:15:1:18:20-00
425:6:2:29:04-00
426:1:2:29:04-00
427:10:2:29:04-00
428:8:2:29:04-00
429:15:2:29:04-00
430:17:2:29:04-00
431:16:2:29:04-00
432:17:2:29:04-00
433:3:2:29:04-00
434:2:2:29:04-00
435:11:2:29:04-00
436:13:2:29:04-00
437:11:2:29:04-00
438:9:2:29:04-00
439:15:2:29:04-00
440:2:2:29:04-00
441:7:2:29:04-00
442:2:2:29:04-00
443:18:2:29:04-00
444:11:2:29:04-00
445:4:2:29:04-00
446:4:2:29:04-00
447:9:2:29:04-00
448:17:2:29:04-00
449:15:2:29:04-00
450:18:2:29:04-00
451:3:2:29:04-00
452:12:2:29:04-00
453:5:2:29:04-00
454:1:2:29:04-00
455:0:2:29:04-00
456:7:2:29:04-00
457:18:2:29:04-00
458:3:2:29:04-00
459:12:2:29:04-00
460:18:2:29:04-00
461:0:2:29:04-00
462:14:2:29:04-00
463:14:2:29:04-00
464:9:2:29:04-00
465:14:2:29:04-00
466:12:2:29:04-00
467:18:2:29:04-00
468:7:2:29:04-00
469:19:2:29:04-00
470:18:2:29:04-00
471:6:2:29:04-00
472:15:2:29:04-00
473:15:2:29:04-00
474:6:2:29:04-00
475:2:2:29:04-00
476:19:2:29:04-00
477:15:2:29:04-00
478:3:2:29:04-00
479:15:2:29:04-00
480:1:2:29:04-00
481:12:2:29:04-00
482:13:2:29:04-00
483:12:2:29:04-00
484:17:2:29:04-00
485:14:2:29:04-00
486:4:2:29:04-00
487:11:2:29:04-00
488:1:2:29:04-00
489:2:2:29:04-00
490:3:2:29:04-00
491:15:2:29:04-00
492:7:2:29:04-00
493:17:2:29:04-00
494:16:2:29:04-00
495:1:2:29:04-00
496:13:2:29:04-00
497:8:2:29:04-00
498:8:2:29:04-00
499:17:2:29:04-00
500:11:2:29:04-00
501:6:2:29:04-00
502:1:2:29:04-00
503:17:2:29:04-00
504:17:2:29:04-00
505:11:2:29:04-00
506:7:2:29:04-00
507:16:2:29:04-00
508:19:2:29:04-00
509:18:2:29:04-00
510:1:2:29:04-00
511:12:2:29:04-00
512:15:2:29:04-00
513:7:2:29:04-00
514:10:2:29:04-00
515:6:2:29:04-00
516:7:2:29:04-00
517:1:2:29:04-00
518:17:2:29:04-00
519:15:2:29:04-00
520:9:2:29:04-00
521:0:2:29:04-00
522:16:2:29:04-00
523:4:2:29:04-00
524:16:2:29:04-00
525:3:2:29:04-00
526:18:2:29:04-00
527:17:2:29:04-00
528:19:2:29:04-00
529:4:2:29:04-00
530:9:2:29:04-00
531:11:2:29:04-00
532:6:2:29:04-00
533:6:2:29:04-00
534:4:2:29:04-00
535:15:2:29:04-00
536:10:2:29:04-00
537:15:2:29:04-00
538:15:2:29:04-00
539:5:2:29:04-00
540:6:2:29:04-00
541:7:2:29:04-00
542:11:2:29:04-00
543:2:2:29:04-00
544:1:2:29:04-00
545:11:2:29:04-00
546:19:2:29:04-00
547:0:2:29:04-00
548:7:2:29:04-00
549:9:2:29:04-00
550:14:2:29:04-00
551:11:2:29:04-00
552:11:2:29:04-00
553:13:2:29:04-00
554:7:2:29:04-00
555:10:2:29:04-00
556:10:2:29:04-00
557:16:2:29:04-00
558:1:2:29:04-00
559:13:2:29:04-00
560:12:2:29:04-00
561:10:2:29:04-00
562:16:2:29:04-00
563:15:2:29:04-00
564:9:2:29:04-00
565:10:2:29:04-00
566:5:2:29:04-00
567:9:2:29:04-00
568:3:2:29:04-00
569:14:2:29:04-00
570:16:2:29:04-00
571:12:2:29:04-00
572:6:2:29:04-00
573:11:2:29:04-00
574:8:2:29:04-00
575:1:2:29:04-00
576:8:2:29:04-00
577:13:2:29:04-00
578:3:2:29:04-00
579:4:2:29:04-00
580:3:2:29:04-00
581:18:2:29:04-00
582:10:2:29:04-00
583:10:2:29:04-00
584:9:2:29:04-00
585:17:2:29:04-00
586:19:2:29:04-00
587:12:2:29:04-00
588:18:2:29:04-00
589:13:2:29:04-00
590:5:2:29:04-00
591:13:2:29:04-00
592:13:2:29:04-00
593:1:2:29:04-00
594:13:2:29:04-00
595:16:2:29:04-00
596:10:2:29:04-00
597:16:2:29:04-00
598:13:2:29:04-00
599:11:2:29:04-00
600:5:2:29:04-00
601:10:2:29:04-00
602:16:2:29:04-00
603:12:2:29:04-00
604:13:2:29:04-00
605:2:2:29:04-00
606:5:2:29:04-00
607:19:2:29:04-00
608:5:2:29:04-00
609:5:2:29:04-00
610:1:2:29:04-00
611:17:2:29:04-00
612:13:2:29:04-00
613:17:2:29:04-00
614:10:2:29:04-00
615:13:2:29:04-00
616:0:2:29:04-00
617:6:2:29:04-00
618:5:2:29:04-00
619:11:2:29:04-00
620:10:2:29:04-00
621:12:2:29:04-00
622:10:2:29:04-00
623:9:2:29:04-00
624:9:2:29:04-00
625:2:2:29:04-00
626:18:2:29:04-00
627:4:2:29:04-00
628:17:2:29:04-00
629:12:2:29:04-00
630:11:2:29:04-00
631:12:2:29:04-00
632:19:2:29:04-00
633:12:2:29:04-00
634:18:2:29:04-00
635:12:2:29:04-00
636:1:2:29:04-00
637:17:2:29:04-00
638:16:2:29:04-00
639:7:2:29:04-00
640:12:2:29:04-00
641:0:2:29:04-00
642:7:2:29:04-00
643:12:2:29:04-00
644:11:2:29:04-00
645:8:2:29:04-00
646:0:2:29:04-00
647:16:2:29:04-00
648:11:2:29:04-00
649:0:2:29:04-00
650:16:2:29:04-00
651:4:2:29:04-00
652:11:2:29:04-00
653:1:2:29:04-00
654:1:2:29:04-00
655:13:2:29:04-00
656:0:2:29:04-00
657:7:2:29:04-00
658:3:2:29:04-00
659:10:2:29:04-00
660:3:2:29:04-00
661:1:2:29:04-00
662:1:2:29:04-00
663:12:2:29:04-00
664:14:2:29:04-00
665:9:2:29:04-00
666:17:2:29:04-00
667:0:2:29:04-00
668:18:2:29:04-00
669:17:2:29:04-00
670:11:2:29:04-00
671:2:2:29:04-00
672:9:2:29:04-00
673:18:2:29:04-00
674:19:2:29:04-00
675:9:2:29:04-00
676:4:2:29:04-00
677:18:2:29:04-00
678:17:2:29:04-00
679:0:2:29:04-00
680:2:2:29:04-00
681:2:2:29:04-00
682:12:2:29:04-00
683:17:2:29:04-00
684:15:2:29:04-00
685:6:2:29:04-00
686:1:2:29:04-00
687:18:2:29:04-00
688:11:2:29:04-00
689:5:2:29:04-00
690:14:3:18:21-30
691:13:3:18:21-30
692:6:3:18:21-30
693:3:3:18:21-30
694:11:3:18:21-30
695:18:3:18:21-30
696:15:3:18:21-30
697:17:3:18:21-30
698:2:3:18:21-30
699:11:3:18:21-30
700:19:3:18:21-30
701:17:3:18:21-30
702:14:3:18:21-30
703:8:3:18:21-30
704:13:3:18:21-30
705:14:3:18:21-30
706:12:3:18:21-30
707:1:3:18:21-30
708:11:3:18:21-30
709:8:3:18:21-30
710:1:3:18:21-30
711:9:3:18:21-30
712:3:3:18:21-30
713:7:3:18:21-30
714:1:3:18:21-30
715:8:3:18:21-30
716:4:3:18:21-30
717:17:3:18:21-30
718:7:3:18:21-30
719:8:3:18:21-30
720:18:3:18:21-30
721:9:3:18:21-30
722:13:3:18:21-30
723:4:3:18:21-30
724:17:3:18:21-30
725:8:3:18:21-30
726:3:3:18:21-30
727:15:3:18:21-30
728:8:3:18:21-30
729:11:3:18:21-30
730:9:3:18:21-30
731:0:3:18:21-30
732:15:3:18:21-30
733:9:3:18:21-30
734:3:3:18:21-30
735:5:3:18:21-30
736:18:3:18:21-30
737:9:3:18:21-30
738:2:3:18:21-30
739:12:3:18:21-30
740:8:3:18:21-30
741:16:3:18:21-30
742:0:3:18:21-30
743:17:3:18:21-30
744:10:3:18:21-30
745:5:3:18:21-30
746:10:3:18:21-30
747:19:3:18:21-30
748:1:3:18:21-30
749:2:3:18:21-30
750:14:3:18:21-30
751:17:3:18:21-30
752:10:3:18:21-30
753:14:3:18:21-30
754:12:3:18:21-30
755:10:3:18:21-30
756:4:3:18:21-30
757:9:3:18:21-30
758:11:3:18:21-30
759:5:3:18:21-30
760:10:3:18:21-30
761:17:3:18:21-30
762:13:3:18:21-30
763:19:3:18:21-30
764:18:3:18:21-30
765:1:3:18:21-30
766:14:3:18:21-30
767:14:3:18:21-30
768:4:3:18:21-30
769:15:3:18:21-30
770:10:3:18:21-30
771:14:3:18:21-30
772:15:3:18:21-30
773:14:3:18:21-30
774:19:3:18:21-30
775:2:3:18:21-30
776:8:3:18:21-30
777:16:3:18:21-30
778:14:3:18:21-30
779:12:3:18:21-30
780:18:3:18:21-30
781:4:3:18:21-30
782:13:3:18:21-30
783:6:3:18:21-30
784:17:3:18:21-30
785:11:3:18:21-30
786:10:3:18:21-30
787:1:3:18:21-30
788:16:3:18:21-30
789:12:3:18:21-30
790:1:3:18:21-30
791:8:3:18:21-30
792:18:3:18:21-30
793:17:3:18:21-30
794:2:3:18:21-30
795:11:3:18:21-30
796:3:3:18:21-30
797:0:3:18:21-30
798:18:3:18:21-30
799:8:3:18:21-30
800:11:3:18:21-30
801:16:3:18:21-30
802:15:3:18:21-30
803:6:3:18:21-30
804:11:3:18:21-30
805:19:3:18:21-30
806:2:3:18:21-30
807:15:3:18:21-30
808:14:3:18:21-30
809:10:3:18:21-30
810:1:3:18:21-30
811:8:3:18:21-30
812:14:3:18:21-30
813:19:3:18:21-30
814:6:3:18:21-30
815:6:3:18:21-30
816:3:3:18:21-30
817:7:3:18:21-30
818:2:3:18:21-30
819:6:3:18:21-30
820:11:3:18:21-30
821:13:3:18:21-30
822:17:3:18:21-30
823:11:3:18:21-30
824:14:3:18:21-30
825:1:3:18:21-30
826:16:3:18:21-30
827:17:3:18:21-30
828:12:3:18:21-30
829:8:3:18:21-30
830:19:3:18:21-30
831:8:3:18:21-30
832:17:3:18:21-30
833:5:3:18:21-30
834:0:3:18:21-30
835:2:3:18:21-30
836:9:3:18:21-30
837:7:3:18:21-30
838:14:3:18:21-30
839:18:3:18:21-30
840:8:3:18:21-30
841:14:3:18:21-30
842:6:3:18:21-30
843:6:3:18:21-30
844:11:3:18:21-30
845:12:3:18:21-30
846:13:3:18:21-30
847:19:3:18:21-30
848:10:3:18:21-30
849:15:3:18:21-30
850:7:3:18:21-30
851:15:3:18:21-30
852:18:3:18:21-30
853:11:3:18:21-30
854:17:3:18:21-30
855:18:3:18:21-30
856:18:3:18:21-30
857:3:3:18:21-30
858:11:3:18:21-30
859:9:3:18:21-30
860:2:3:18:21-30
861:4:3:18:21-30
862:2:3:18:21-30
863:6:3:18:21-30
864:11:3:18:21-30
865:13:3:18:21-30
866:10:3:18:21-30
867:9:3:18:21-30
868:18:3:18:21-30
869:4:3:18:21-30
870:17:3:18:21-30
871:16:3:18:21-30
872:13:3:18:21-30
873:3:3:18:21-30
874:17:3:18:21-30
875:16:3:18:21-30
876:6:3:18:21-30
877:11:3:18:21-30
878:19:3:18:21-30
879:2:3:18:21-30
880:7:3:18:21-30
881:17:3:18:21-30
882:7:3:18:21-30
883:17:3:18:21-30
884:0:3:18:21-30
885:3:3:18:21-30
886:9:3:18:21-30
887:5:3:18:21-30
888:8:3:18:21-30
889:2:3:18:21-30
890:3:3:18:21-30
891:5:3:18:21-30
892:16:3:18:21-30
893:4:3:18:21-30
894:16:3:18:21-30
895:3:3:18:21-30
896:12:3:18:21-30
897:19:3:18:21-30
898:15:3:18:21-30
899:18:3:18:21-30
900:1:3:18:21-30
901:4:3:18:21-30
902:0:3:18:21-30
903:5:3:18:21-30
904:17:3:18:21-30
905:11:3:18:21-30
906:2:3:18:21-30
907:15:3:18:21-30
908:13:3:18:21-30
909:0:3:18:21-30
910:11:3:18:21-30
911:7:3:18:21-30
912:4:3:18:21-30
913:8:3:18:21-30
914:2:3:18:21-30
915:4:3:18:21-30
916:17:3:18:21-30
917:4:3:18:21-30
918:5:3:18:21-30
919:7:3:18:21-30
920:3:3:18:21-30
921:5:3:18:21-30
922:1:3:18:21-30
923:15:3:18:21-30
924:1:3:18:21-30
925:12:3:18:21-30
926:0:3:18:21-30
927:8:3:18:21-30
928:7:3:18:21-30
929:14:3:18:21-30
930:4:3:18:21-30
931:7:3:18:21-30
932:16:3:18:21-30
933:1:3:18:21-30
934:0:3:18:21-30
935:3:3:18:21-30
936:16:3:18:21-30
937:2:3:18:21-30
938:19:3:18:21-30
939:9:3:18:21-30
940:0:3:18:21-30
941:14:3:18:21-30
942:11:3:18:21-30
943:8:3:18:21-30
944:11:3:18:21-30
945:16:3:18:21-30
946:1:3:18:21-30
947:7:3:18:21-30
948:2:3:18:21-30
949:11:3:18:21-30
950:6:3:18:21-30
951:7:3:18:21-30
952:13:3:18:21-30
953:7:3:18:21-30
954:14:3:18:21-30
955:16:3:18:21-30
956:3:3:18:21-30
957:5:3:18:21-30
958:4:3:18:21-30
959:5:3:18:21-30
960:11:3:18:21-30
961:13:3:18:21-30
962:7:3:18:21-30
963:19:3:18:21-30
964:15:3:18:21-30
965:4:3:18:21-30
966:11:3:18:21-30
967:8:4:3:04-00
968:18:4:3:04-00
969:7:4:3:04-00
970:15:4:3:04-00
971:5:4:3:04-00
972:16:4:3:04-00
973:6:4:3:04-00
974:9:4:3:04-00
975:13:4:3:04-00
976:13:4:3:04-00
977:4:4:3:04-00
978:5:4:3:04-00
979:10:4:3:04-00
980:12:4:3:04-00
981:6:4:3:04-00
982:15:4:3:04-00
983:7:4:3:04-00
984:16:4:3:04-00
985:13:4:3:04-00
986:8:4:3:04-00
987:7:4:3:04-00
988:3:4:3:04-00
989:0:4:3:04-00
990:11:4:3:04-00
991:17:4:3:04-00
992:13:4:3:04-00
993:18:4:3:04-00
994:6:4:3:04-00
995:6:4:3:04-00
996:11:4:3:04-00
997:12:4:3:04-00
998:7:4:3:04-00
999:5:4:3:04-00
1000:18:4:3:04-00
1001:18:4:3:04-00
1002:3:4:3:04-00
1003:4:4:3:04-00
1004:11:4:3:04-00
1005:2:4:3:04-00
1006:17:4:3:04-00
1007:0:4:3:04-00
1008:4:4:3:04-00
1009:3:4:3:04-00
1010:9:4:3:04-00
1011:1:4:3:04-00
1012:19:4:3:04-00
1013:14:4:3:04-00
1014:18:4:3:04-00
1015:7:4:3:04-00
1016:12:4:3:04-00
1017:12:4:3:04-00
1018:19:4:3:04-00
1019:10:4:3:04-00
1020:2:4:3:04-00
1021:15:4:3:04-00
1022:5:4:3:04-00
1023:17:4:3:04-00
1024:15:4:3:04-00
1025:17:4:3:04-00
1026:11:4:3:04-00
1027:17:4:3:04-00
1028:0:4:3:04-00
1029:3:4:3:04-00
1030:1:4:3:04-00
1031:1:4:3:04-00
1032:17:4:3:04-00
1033:0:4:3:04-00
1034:12:4:3:04-00
1035:14:4:3:04-00
1036:2:4:3:04-00
1037:11:4:3:04-00
1038:16:4:3:04-00
1039:13:4:3:04-00
1040:16:4:3:04-00
1041:8:4:3:04-00
1042:2:4:3:04-00
1043:0:4:3:04-00
1044:10:4:3:04-00
1045:10:4:3:04-00
1046:18:4:3:04-00
1047:18:4:3:04-00
1048:0:4:3:04-00
1049:19:4:3:04-00
1050:14:4:3:04-00
1051:19:4:3:04-00
1052:12:4:3:04-00
1053:16:4:3:04-00
1054:2:4:3:04-00
1055:3:4:3:04-00
1056:13:4:3:04-00
1057:5:4:3:04-00
1058:8:4:3:04-00
1059:13:4:3:04-00
1060:11:4:3:04-00
1061:19:4:3:04-00
1062:0:4:3:04-00
1063:1:4:3:04-00
1064:1:4:3:04-00
1065:8:4:3:04-00
1066:4:4:3:04-00
1067:18:4:3:04-00
1068:2:4:3:04-00
1069:3:4:3:04-00
1070:4:4:3:04-00
1071:0:4:3:04-00
1072:16:4:3:04-00
1073:5:4:3:04-00
1074:14:4:3:04-00
1075:14:4:3:04-00
1076:12:4:3:04-00
1077:4:4:3:04-00
1078:7:4:3:04-00
1079:5:4:3:04-00
1080:18:4:3:04-00
1081:12:4:3:04-00
1082:17:4:3:04-00
1083:0:4:3:04-00
1084:9:4:3:04-00
1085:2:4:3:04-00
1086:8:4:3:04-00
1087:0:4:3:04-00
1088:17:4:3:04-00
1089:8:4:3:04-00
1090:0:4:3:04-00
1091:16:4:3:04-00
1092:3:4:3:04-00
1093:2:4:3:04-00
1094:2:4:3:04-00
1095:16:4:3:04-00
1096:7:4:3:04-00
1097:1:4:3:04-00
1098:19:4:3:04-00
1099:2:4:3:04-00
1100:6:4:3:04-00
1101:19:4:3:04-00
1102:16:4:3:04-00
1103:16:4:3:04-00
1104:14:4:3:04-00
1105:13:4:3:04-00
1106:3:4:3:04-00
1107:7:4:3:04-00
1108:1:4:3:04-00
1109:8:4:3:04-00
1110:10:4:3:04-00
1111:8:4:3:04-00
1112:18:4:3:04-00
1113:2:4:3:04-00
1114:14:4:3:04-00
1115:18:4:3:04-00
1116:1:4:3:04-00
1117:19:4:3:04-00
1118:12:4:3:04-00
1119:19:4:3:04-00
1120:0:4:3:04-00
1121:3:4:3:04-00
1122:1:4:3:04-00
1123:13:4:3:04-00
1124:3:4:3:04-00
1125:7:4:3:04-00
1126:17:4:3:04-00
1127:13:4:3:04-00
1128:2:4:3:04-00
1129:17:4:3:04-00
1130:6:4:3:04-00
1131:10:4:3:04-00
1132:5:4:3:04-00
1133:4:4:3:04-00
1134:19:4:3:04-00
1135:19:4:3:04-00
1136:16:4:3:04-00
1137:1:4:3:04-00
1138:6:4:3:04-00
1139:15:4:3:04-00
1140:18:4:3:04-00
1141:1:4:3:04-00
1142:18:4:3:04-00
1143:9:4:3:04-00
1144:18:4:3:04-00
1145:12:4:3:04-00
1146:18:4:3:04-00
1147:0:4:3:04-00
1148:7:4:3:04-00
1149:3:4:3:04-00
1150:15:4:3:04-00
1151:8:4:3:04-00
1152:9:4:3:04-00
1153:19:4:3:04-00
1154:2:4:3:04-00
1155:2:4:3:04-00
1156:18:4:3:04-00
1157:2:4:3:04-00
1158:13:4:3:04-00
1159:6:4:3:04-00
1160:15:4:3:04-00
1161:9:4:3:04-00
1162:4:4:3:04-00
1163:4:4:3:04-00
1164:1:4:3:04-00
1165:19:4:3:04-00
1166:3:4:3:04-00
1167:13:4:3:04-00
1168:3:4:3:04-00
1169:15:4:3:04-00
1170:2:4:3:04-00
1171:0:4:3:04-00
1172:13:4:3:04-00
1173:16:4:3:04-00
1174:0:4:3:04-00
1175:18:4:3:04-00
1176:4:4:3:04-00
1177:11:4:3:04-00
1178:15:4:3:04-00
1179:11:4:3:04-00
1180:9:4:3:04-00
1181:17:4:3:04-00
1182:6:4:3:04-00
1183:18:4:3:04-00
1184:2:4:3:04-00
1185:18:4:3:04-00
1186:1:4:3:04-00
1187:5:4:3:04-00
1188:2:4:3:04-00
1189:16:4:3:04-00
1190:0:4:3:04-00
1191:13:4:3:04-00
1192:8:4:3:04-00
1193:19:4:3:04-00
1194:0:4:3:04-00
1195:9:4:3:04-00
1196:16:4:3:04-00
1197:14:4:3:04-00
1198:8:4:3:04-00
1199:18:4:3:04-00
1200:8:4:3:04-00
1201:4:4:3:04-00
1202:17:4:3:04-00
1203:11:4:3:04-00
1204:1:4:3:04-00
1205:15:4:3:04-00
1206:14:4:3:04-00
1207:13:4:3:04-00
1208:19:4:3:04-00
1209:3:4:3:04-00
1210:18:4:3:04-00
1211:6:4:3:04-00
1212:6:4:3:04-00
1213:2:4:3:04-00
1214:16:4:3:04-00
1215:18:4:3:04-00
1216:3:4:3:04-00
1217:5:4:3:04-00
1218:1:4:3:04-00
1219:2:4:3:04-00
1220:18:4:3:04-00
1221:17:4:3:04-00
1222:11:4:3:04-00
1223:6:4:3:04-00
1224:15:4:3:04-00
1225:8:4:3:04-00
1226:12:4:3:04-00
1227:13:4:3:04-00
1228:16:4:3:04-00
1229:11:4:3:04-00
1230:2:4:3:04-00
